﻿accessories = {
	usage = game
	selection_behavior = weighted_random
	#fallback = no_headgear

    #no_acessories = {
    #    dna_modifiers = {
    #        accessory = {
    #            mode = add
    #            gene = 
    #            template = no_headgear
    #            range = { 0 1 } # For the randomness to work correctly
    #        }
    #    }   
    #    weight = {
    #        base = 0
    #    }
    #}

    european_shopkeeper_clothes = {
        dna_modifiers = {
            accessory = {
                mode = add
                gene = misc
                template = all_misc
                range = { 0 1 } # For the randomness to work correctly
            }
        } 
        weight = {
            base = 0
            modifier = {
                add = 10000

                shopkeepers_clothes_pop_trigger = yes
                OR = {
                    AND = {
                        european_clothes_pop_trigger = yes

                        ## Midsummer clothes exception ##
                        NAND = {
                            OR = {
                                slavic_clothes_pop_trigger = yes
                                nordic_clothes_pop_trigger = yes
                            }
                            scope:pop ?= {
                                month = 5 # June. The trigger for months is on a 0-11 scale.
                            }
                        }
                        ## Midsummer clothes exception ##
                    }
                    african_diaspora_pop_clothes_trigger = yes
                    AND = {
                        native_american_clothes_pop_trigger = yes
                        AND = {
                            scope:pop ?= {
                                NOT = { culture = cu:inuit }
                            }
                        }
                    }
                }

                scope:pop ?= {
                    NAND = {
                        #religion = rel:catholic
						religion = rel:ravelian
                        month = 1 # Carnival is /usually/ in February
                    }
                }
            }
        }
    }

    sash_accessories = {
        dna_modifiers = {
             accessory = {
                 mode = add
                 gene = sashes
                 template = all_sashes
                 range = { 0 1 } # For the randomness to work correctly
            }
        }
        weight = {
            base = 0
            modifier = {
                add = 1000

    			european_clothes_trigger = yes
    			scope:character = {	#changed PAP to Ravelian A33
                    monarchy_clothes_trigger = yes
                    age > 12
    				OR = {
    					NOT = { exists = c:A33 }
    					AND = {
    						exists = c:A33
							exists = home_country
    						NOT = { home_country = c:A33 }
    					}
    				}
    			}
    		}
        }
    }

    prussian_accessories = {
        dna_modifiers = {
            accessory = {
                 mode = add
                 gene = medals
                 template = prussian_medals
                 range = { 0 1 } # For the randomness to work correctly
            }
            accessory = {
                 mode = add
                 gene = epaulettes
                 template = all_epaulettes
                 range = { 0 0.4 } # For the randomness to work correctly
            }
            accessory = {
                 mode = add
                 gene = belts
                 template = all_belts
                 range = { 0 1 } # For the randomness to work correctly
            }
            accessory = {
                 mode = add
                 gene = sashes
                 template = all_sashes
                 range = { 0 1 } # For the randomness to work correctly
            }
        }
        weight = {
            base = 0
            modifier = {
               add = 10000
                agitator_character_trigger = no
                german_clothes_trigger = yes
                scope:character ?= {
                    age > 12
                    NOR = {
                        has_template = agitator_jules_brunet
                        has_template = rus_leon_trotsky_character_template
                        has_template = agitator_nestor_makhno
                        has_template = fra_georges_boulanger_character_template
                        has_template = agitator_louise_michel
                        has_template = agitator_susan_b_anthony
                        has_template = agitator_emiliano_zapata
                    }
                }
                OR = {
                    military_clothes_trigger = yes
                    monarchy_clothes_trigger = yes
                }   
            }
        }
    }

    american_accessories = {
        dna_modifiers = {
            accessory = {
                 mode = add
                 gene = medals
                 template = generic_medals
                 range = { 0.9 1 } # For the randomness to work correctly
            }
            accessory = {
                 mode = add
                 gene = epaulettes
                 template = all_epaulettes
                 range = { 0.8 1 } # For the randomness to work correctly
            }
            accessory = {
                 mode = add
                 gene = belts
                 template = all_belts
                 range = { 0 1 } # For the randomness to work correctly
            }
            accessory = {
                 mode = add
                 gene = sashes
                 template = all_sashes
                 range = { 0 0.4 } # For the randomness to work correctly
            }
        }
        weight = {
            base = 0
            modifier = {
                add = 10000
                agitator_character_trigger = no
                OR = {
                    american_clothes_trigger = yes
                    #AND = {
                    #    exists = scope:character
                    #    scope:character = {
					#		exists = home_country
                    #        home_country = {
                    #            exists = c:CSA
                    #            c:CSA = this
                    #            is_subject = no
                    #        }
                    #    }
                    #}
                }
                OR = {
                    military_clothes_trigger = yes
                    monarchy_clothes_trigger = yes
                }
                scope:character ?= {
                    age > 12
                    NOR = {
                        has_template = agitator_jules_brunet
                        has_template = rus_leon_trotsky_character_template
                        has_template = agitator_nestor_makhno
                        has_template = fra_georges_boulanger_character_template
                        has_template = agitator_louise_michel
                        has_template = agitator_susan_b_anthony
                        has_template = agitator_emiliano_zapata
                    }
                }
            }
        }
    }

    commander_accessories = {
        dna_modifiers = {
             accessory = {
                 mode = add
                 gene = medals
                 template = generic_medals
                 range = { 0 1 } # For the randomness to work correctly
            }
            accessory = {
                mode = add
                gene = epaulettes
                template = all_epaulettes
                range = { 0 1 } # For the randomness to work correctly
            }
            accessory = {
                mode = add
                gene = belts
                template = all_belts
                range = { 0 1 } # For the randomness to work correctly
            }
            accessory = {
                mode = add
                gene = sashes
                template = all_sashes
                range = { 0 1 } # For the randomness to work correctly
            }
            accessory = {
                mode = add
                gene = aiguillettes
                template = all_aiguillettes
                range = { 0 1 } # For the randomness to work correctly
            }
        }
        weight = {
            base = 0
            modifier = {
                add = 1000
                agitator_character_trigger = no
                european_clothes_trigger = yes
                republic_clothes_trigger = no
                scope:character = {
                    age > 12
                    NOR = {
                        has_template = agitator_jules_brunet
                        has_template = rus_leon_trotsky_character_template
                        has_template = agitator_nestor_makhno
                        has_template = fra_georges_boulanger_character_template
                        has_template = agitator_louise_michel
                        has_template = agitator_susan_b_anthony
                        has_template = agitator_emiliano_zapata
                    }
                }
                OR = {
                    military_clothes_trigger = yes
                    officers_clothes_pop_trigger = yes
                    AND = {
                        european_clothes_trigger = yes
                        ruler_clothes_trigger = yes
                        NOT = {
                            scope:character = {	#changed PAP to Ravelian Rectorate A33
    							exists = c:A33
								exists = home_country
                                home_country = c:A33
                            }
                        }
                    }
                    AND = {
                        armed_forces_clothes_trigger = yes
                        politician_clothes_trigger = yes
                    }
                }
            } 
        }
    }

	african_expedition_necklace = {
		dna_modifiers = {
			accessory = {
				mode = add
				gene = necklaces
				template = african_necklaces
				range = { 0 1 } # For the randomness to work correctly
			}
		}
		weight = {
			base = 0
			modifier = {
				add = 100000
                AND = {
                    exists = scope:character
                    scope:character = {
                      has_variable = expedition_trading_gifts
                    }  
                }     
			}
		}
	}
}
