﻿

dna_artur_laurens_silmuna = {
    portrait_info = {
    genes={         
        hair_color={ 255 22 213 172 }
 		skin_color={ 0 2 62 28 }
 		eye_color={ 93 160 44 153 }
 		gene_cheek_fat={ "cheek_fat" 97 "cheek_fat" 97 }
 		gene_cheek_forward={ "cheek_forward" 119 "cheek_forward" 119 }
 		gene_cheek_height={ "cheek_height" 125 "cheek_height" 125 }
 		gene_cheek_prom={ "cheek_prom" 126 "cheek_prom" 126 }
 		gene_cheek_width={ "cheek_width" 117 "cheek_width" 117 }
 		gene_chin_forward={ "chin_forward" 95 "chin_forward" 127 }
 		gene_chin_height={ "chin_height" 140 "chin_height" 140 }
 		gene_chin_width={ "chin_width" 114 "chin_width" 114 }
 		gene_ear_angle={ "ear_angle" 132 "ear_angle" 132 }
 		gene_ear_inner_shape={ "ear_inner_shape" 54 "ear_inner_shape" 54 }
 		gene_ear_lower_bend={ "ear_lower_bend" 135 "ear_lower_bend" 135 }
 		gene_ear_out={ "ear_out" 179 "ear_out" 179 }
 		gene_ear_size={ "ear_size" 139 "ear_size" 139 }
 		gene_ear_upper_bend={ "ear_upper_bend" 133 "ear_upper_bend" 133 }
 		gene_eye_angle={ "eye_angle" 123 "eye_angle" 123 }
 		gene_eye_depth={ "eye_depth" 135 "eye_depth" 135 }
 		gene_eye_distance={ "eye_distance" 125 "eye_distance" 125 }
 		gene_eye_height={ "eye_height" 126 "eye_height" 126 }
 		gene_eye_shut={ "eye_shut" 117 "eye_shut" 117 }
 		gene_eye_corner_def={ "eye_corner_def" 119 "eye_corner_def" 119 }
 		gene_eye_corner_depth_min={ "eye_corner_depth_min" 70 "eye_corner_depth_min" 70 }
 		gene_eye_fold_droop={ "eye_fold_droop" 118 "eye_fold_droop" 118 }
 		gene_eye_fold_shape={ "eye_fold_shape" 116 "eye_fold_shape" 116 }
 		gene_eye_size={ "eye_size" 76 "eye_size" 76 }
 		gene_eye_upper_lid_size={ "eye_upper_lid_size" 153 "eye_upper_lid_size" 153 }
 		gene_forehead_angle={ "forehead_angle" 126 "forehead_angle" 126 }
 		gene_forehead_brow_curve={ "forehead_brow_curve" 126 "forehead_brow_curve" 126 }
 		gene_forehead_brow_forward={ "forehead_brow_forward" 125 "forehead_brow_forward" 125 }
 		gene_forehead_brow_height={ "forehead_brow_height" 104 "forehead_brow_height" 104 }
 		gene_forehead_brow_inner_height={ "forehead_brow_inner_height" 200 "forehead_brow_inner_height" 200 }
 		gene_forehead_brow_outer_height={ "forehead_brow_outer_height" 179 "forehead_brow_outer_height" 116 }
 		gene_forehead_brow_width={ "forehead_brow_width" 138 "forehead_brow_width" 138 }
 		gene_forehead_height={ "forehead_height" 115 "forehead_height" 115 }
 		gene_forehead_roundness={ "forehead_roundness" 122 "forehead_roundness" 122 }
 		gene_forehead_width={ "forehead_width" 40 "forehead_width" 40 }
 		gene_head_height={ "head_height" 128 "head_height" 128 }
 		gene_head_profile={ "head_profile" 130 "head_profile" 130 }
 		gene_head_top_height={ "head_top_height" 131 "head_top_height" 131 }
 		gene_head_top_width={ "head_top_width" 181 "head_top_width" 181 }
 		gene_head_width={ "head_width" 134 "head_width" 134 }
 		gene_jaw_angle={ "jaw_angle" 117 "jaw_angle" 117 }
 		gene_jaw_def={ "jaw_def" 149 "jaw_def" 157 }
 		gene_jaw_forward={ "jaw_forward" 120 "jaw_forward" 120 }
 		gene_jaw_height={ "jaw_height" 127 "jaw_height" 127 }
 		gene_jaw_width={ "jaw_width" 107 "jaw_width" 107 }
 		gene_mouth_corner_height={ "mouth_corner_height" 114 "mouth_corner_height" 114 }
 		gene_mouth_forward={ "mouth_forward" 119 "mouth_forward" 119 }
 		gene_mouth_height={ "mouth_height" 114 "mouth_height" 114 }
 		gene_mouth_lower_lip_def={ "mouth_lower_lip_def" 122 "mouth_lower_lip_def" 122 }
 		gene_mouth_lower_lip_full={ "mouth_lower_lip_full" 89 "mouth_lower_lip_full" 57 }
 		gene_mouth_lower_lip_pads={ "mouth_lower_lip_pads" 138 "mouth_lower_lip_pads" 138 }
 		gene_mouth_lower_lip_size={ "mouth_lower_lip_size" 146 "mouth_lower_lip_size" 103 }
 		gene_mouth_lower_lip_width={ "mouth_lower_lip_width" 92 "mouth_lower_lip_width" 92 }
 		gene_mouth_open={ "mouth_open" 133 "mouth_open" 133 }
 		gene_mouth_philtrum_curve={ "mouth_philtrum_curve" 136 "mouth_philtrum_curve" 136 }
 		gene_mouth_philtrum_def={ "mouth_philtrum_def" 135 "mouth_philtrum_def" 135 }
 		gene_mouth_philtrum_width={ "mouth_philtrum_width" 121 "mouth_philtrum_width" 121 }
 		gene_mouth_upper_lip_curve={ "mouth_upper_lip_curve" 195 "mouth_upper_lip_curve" 195 }
 		gene_mouth_upper_lip_def={ "mouth_upper_lip_def" 68 "mouth_upper_lip_def" 68 }
 		gene_mouth_upper_lip_full={ "mouth_upper_lip_full" 123 "mouth_upper_lip_full" 123 }
 		gene_mouth_upper_lip_width={ "mouth_upper_lip_width" 134 "mouth_upper_lip_width" 134 }
 		gene_mouth_upper_lip_size={ "mouth_upper_lip_size" 211 "mouth_upper_lip_size" 211 }
 		gene_mouth_width={ "mouth_width" 79 "mouth_width" 79 }
 		gene_nose_curve={ "nose_curve" 137 "nose_curve" 137 }
 		gene_nose_forward={ "nose_forward" 108 "nose_forward" 108 }
 		gene_nose_hawk={ "nose_hawk" 125 "nose_hawk" 125 }
 		gene_nose_height={ "nose_height" 123 "nose_height" 123 }
 		gene_nose_length={ "nose_length" 123 "nose_length" 123 }
 		gene_nose_nostril_angle={ "nose_nostril_angle" 104 "nose_nostril_angle" 104 }
 		gene_nose_nostril_height={ "nose_nostril_height" 130 "nose_nostril_height" 130 }
 		gene_nose_nostril_width={ "nose_nostril_width" 124 "nose_nostril_width" 124 }
 		gene_nose_ridge_angle={ "nose_ridge_angle" 167 "nose_ridge_angle" 167 }
 		gene_nose_ridge_def={ "nose_ridge_def" 139 "nose_ridge_def" 139 }
 		gene_nose_ridge_def_min={ "nose_ridge_def_min" 94 "nose_ridge_def_min" 94 }
 		gene_nose_ridge_width={ "nose_ridge_width" 154 "nose_ridge_width" 154 }
 		gene_nose_size={ "nose_size" 116 "nose_size" 116 }
 		gene_nose_tip_angle={ "nose_tip_angle" 123 "nose_tip_angle" 123 }
 		gene_nose_tip_forward={ "nose_tip_forward" 115 "nose_tip_forward" 115 }
 		gene_nose_tip_width={ "nose_tip_width" 137 "nose_tip_width" 137 }
 		gene_neck_length={ "neck_length" 146 "neck_length" 146 }
 		gene_neck_width={ "neck_width" 119 "neck_width" 119 }
 		gene_bs_body_type={ "body_fat_head_fat_low" 134 "body_fat_head_fat_low" 134 }
 		gene_height={ "normal_height" 177 "normal_height" 177 }
 		gene_age={ "old_1" 127 "old_1" 127 }
 		gene_old_ears={ "old_ears_01" 127 "old_ears_01" 127 }
 		gene_old_eyes={ "old_eyes_03" 255 "old_eyes_03" 255 }
 		gene_old_forehead={ "old_forehead_02" 255 "old_forehead_02" 255 }
 		gene_old_mouth={ "old_mouth_02" 255 "old_mouth_02" 255 }
 		gene_old_nose={ "old_nose_01" 127 "old_nose_01" 127 }
 		gene_complexion={ "complexion_01" 0 "complexion_01" 0 }
 		gene_stubble={ "stubble_low" 127 "stubble_low" 127 }
 		gene_crowfeet={ "crowfeet_02" 4 "crowfeet_02" 4 }
 		gene_face_dacals={ "face_dacal_02" 255 "face_dacal_02" 255 }
 		gene_frown={ "frown_01" 18 "frown_01" 18 }
 		gene_surprise={ "surprise_02" 2 "surprise_02" 2 }
 		gene_eyebrows_shape={ "avg_spacing_avg_thickness" 247 "avg_spacing_avg_thickness" 247 }
 		gene_eyebrows_fullness={ "layer_2_lower_thickness" 181 "layer_2_lower_thickness" 181 }
 		hairstyles={ "european_hairstyles" 24 "european_hairstyles" 139 }
 		beards={ "no_beard" 234 "european_beards" 234 }
 		mustaches={ "no_mustache" 0 "no_mustache" 0 }
 		props={ "no_prop" 0 "no_prop" 0 }
 		eye_accessory={ "normal_eyes" 0 "normal_eyes" 0 }
 		eye_lashes_accessory={ "normal_eyelashes" 0 "normal_eyelashes" 0 }
 		teeth_accessory={ "normal_teeth" 0 "normal_teeth" 0 }
 		POD_NOSschnoz={ "schnozies" 0 "schnozies" 0 }
 		race_gene_mer_ears_01={ "default_1" 127 "default_1" 127 }
 		race_gene_mer_ears_02={ "default_1" 127 "default_1" 127 }
 }

}

    enabled=yes
}
