﻿

dna_varilor_silmuna = {
    portrait_info = {
    genes={         
 		hair_color={ 255 24 0 18 }
 		skin_color={ 10 20 10 20 }
 		eye_color={ 242 102 242 102 }
 		gene_cheek_fat={ "cheek_fat" 112 "cheek_fat" 112 }
 		gene_cheek_forward={ "cheek_forward" 154 "cheek_forward" 154 }
 		gene_cheek_height={ "cheek_height" 187 "cheek_height" 187 }
 		gene_cheek_prom={ "cheek_prom" 186 "cheek_prom" 154 }
 		gene_cheek_width={ "cheek_width" 153 "cheek_width" 153 }
 		gene_chin_forward={ "chin_forward" 122 "chin_forward" 122 }
 		gene_chin_height={ "chin_height" 118 "chin_height" 118 }
 		gene_chin_width={ "chin_width" 79 "chin_width" 79 }
 		gene_ear_angle={ "ear_angle" 113 "ear_angle" 113 }
 		gene_ear_inner_shape={ "ear_inner_shape" 123 "ear_inner_shape" 123 }
 		gene_ear_lower_bend={ "ear_lower_bend" 139 "ear_lower_bend" 139 }
 		gene_ear_out={ "ear_out" 132 "ear_out" 132 }
 		gene_ear_size={ "ear_size" 121 "ear_size" 121 }
 		gene_ear_upper_bend={ "ear_upper_bend" 133 "ear_upper_bend" 133 }
 		gene_eye_angle={ "eye_angle" 127 "eye_angle" 127 }
 		gene_eye_depth={ "eye_depth" 79 "eye_depth" 79 }
 		gene_eye_distance={ "eye_distance" 114 "eye_distance" 114 }
 		gene_eye_height={ "eye_height" 132 "eye_height" 132 }
 		gene_eye_shut={ "eye_shut" 110 "eye_shut" 110 }
 		gene_eye_corner_def={ "eye_corner_def" 138 "eye_corner_def" 138 }
 		gene_eye_corner_depth_min={ "eye_corner_depth_min" 100 "eye_corner_depth_min" 100 }
 		gene_eye_fold_droop={ "eye_fold_droop" 139 "eye_fold_droop" 139 }
 		gene_eye_fold_shape={ "eye_fold_shape" 137 "eye_fold_shape" 137 }
 		gene_eye_size={ "eye_size" 135 "eye_size" 135 }
 		gene_eye_upper_lid_size={ "eye_upper_lid_size" 126 "eye_upper_lid_size" 126 }
 		gene_forehead_angle={ "forehead_angle" 120 "forehead_angle" 120 }
 		gene_forehead_brow_curve={ "forehead_brow_curve" 176 "forehead_brow_curve" 176 }
 		gene_forehead_brow_forward={ "forehead_brow_forward" 96 "forehead_brow_forward" 96 }
 		gene_forehead_brow_height={ "forehead_brow_height" 69 "forehead_brow_height" 69 }
 		gene_forehead_brow_inner_height={ "forehead_brow_inner_height" 139 "forehead_brow_inner_height" 139 }
 		gene_forehead_brow_outer_height={ "forehead_brow_outer_height" 239 "forehead_brow_outer_height" 239 }
 		gene_forehead_brow_width={ "forehead_brow_width" 114 "forehead_brow_width" 114 }
 		gene_forehead_height={ "forehead_height" 121 "forehead_height" 121 }
 		gene_forehead_roundness={ "forehead_roundness" 122 "forehead_roundness" 122 }
 		gene_forehead_width={ "forehead_width" 122 "forehead_width" 122 }
 		gene_head_height={ "head_height" 134 "head_height" 134 }
 		gene_head_profile={ "head_profile" 135 "head_profile" 135 }
 		gene_head_top_height={ "head_top_height" 136 "head_top_height" 136 }
 		gene_head_top_width={ "head_top_width" 132 "head_top_width" 132 }
 		gene_head_width={ "head_width" 168 "head_width" 168 }
 		gene_jaw_angle={ "jaw_angle" 156 "jaw_angle" 156 }
 		gene_jaw_def={ "jaw_def" 192 "jaw_def" 178 }
 		gene_jaw_forward={ "jaw_forward" 122 "jaw_forward" 122 }
 		gene_jaw_height={ "jaw_height" 144 "jaw_height" 144 }
 		gene_jaw_width={ "jaw_width" 182 "jaw_width" 70 }
 		gene_mouth_corner_height={ "mouth_corner_height" 138 "mouth_corner_height" 138 }
 		gene_mouth_forward={ "mouth_forward" 114 "mouth_forward" 114 }
 		gene_mouth_height={ "mouth_height" 131 "mouth_height" 131 }
 		gene_mouth_lower_lip_def={ "mouth_lower_lip_def" 137 "mouth_lower_lip_def" 137 }
 		gene_mouth_lower_lip_full={ "mouth_lower_lip_full" 98 "mouth_lower_lip_full" 98 }
 		gene_mouth_lower_lip_pads={ "mouth_lower_lip_pads" 176 "mouth_lower_lip_pads" 176 }
 		gene_mouth_lower_lip_size={ "mouth_lower_lip_size" 140 "mouth_lower_lip_size" 140 }
 		gene_mouth_lower_lip_width={ "mouth_lower_lip_width" 130 "mouth_lower_lip_width" 130 }
 		gene_mouth_open={ "mouth_open" 132 "mouth_open" 132 }
 		gene_mouth_philtrum_curve={ "mouth_philtrum_curve" 173 "mouth_philtrum_curve" 173 }
 		gene_mouth_philtrum_def={ "mouth_philtrum_def" 117 "mouth_philtrum_def" 117 }
 		gene_mouth_philtrum_width={ "mouth_philtrum_width" 119 "mouth_philtrum_width" 119 }
 		gene_mouth_upper_lip_curve={ "mouth_upper_lip_curve" 132 "mouth_upper_lip_curve" 132 }
 		gene_mouth_upper_lip_def={ "mouth_upper_lip_def" 120 "mouth_upper_lip_def" 120 }
 		gene_mouth_upper_lip_full={ "mouth_upper_lip_full" 161 "mouth_upper_lip_full" 161 }
 		gene_mouth_upper_lip_width={ "mouth_upper_lip_width" 131 "mouth_upper_lip_width" 131 }
 		gene_mouth_upper_lip_size={ "mouth_upper_lip_size" 133 "mouth_upper_lip_size" 133 }
 		gene_mouth_width={ "mouth_width" 93 "mouth_width" 93 }
 		gene_nose_curve={ "nose_curve" 133 "nose_curve" 133 }
 		gene_nose_forward={ "nose_forward" 118 "nose_forward" 118 }
 		gene_nose_hawk={ "nose_hawk" 121 "nose_hawk" 121 }
 		gene_nose_height={ "nose_height" 128 "nose_height" 128 }
 		gene_nose_length={ "nose_length" 115 "nose_length" 115 }
 		gene_nose_nostril_angle={ "nose_nostril_angle" 130 "nose_nostril_angle" 130 }
 		gene_nose_nostril_height={ "nose_nostril_height" 135 "nose_nostril_height" 135 }
 		gene_nose_nostril_width={ "nose_nostril_width" 122 "nose_nostril_width" 122 }
 		gene_nose_ridge_angle={ "nose_ridge_angle" 134 "nose_ridge_angle" 134 }
 		gene_nose_ridge_def={ "nose_ridge_def" 122 "nose_ridge_def" 122 }
 		gene_nose_ridge_def_min={ "nose_ridge_def_min" 51 "nose_ridge_def_min" 51 }
 		gene_nose_ridge_width={ "nose_ridge_width" 122 "nose_ridge_width" 122 }
 		gene_nose_size={ "nose_size" 138 "nose_size" 138 }
 		gene_nose_tip_angle={ "nose_tip_angle" 140 "nose_tip_angle" 140 }
 		gene_nose_tip_forward={ "nose_tip_forward" 127 "nose_tip_forward" 127 }
 		gene_nose_tip_width={ "nose_tip_width" 131 "nose_tip_width" 131 }
 		gene_neck_length={ "neck_length" 174 "neck_length" 174 }
 		gene_neck_width={ "neck_width" 52 "neck_width" 52 }
 		gene_bs_body_type={ "body_fat_head_fat_low" 80 "body_fat_head_fat_low" 80 }
 		gene_height={ "normal_height" 125 "normal_height" 125 }
 		gene_age={ "no_aging" 46 "no_aging" 46 }
 		gene_old_ears={ "old_ears_01" 127 "old_ears_01" 127 }
 		gene_old_eyes={ "old_eyes_02" 21 "old_eyes_02" 21 }
 		gene_old_forehead={ "old_forehead_02" 15 "old_forehead_02" 15 }
 		gene_old_mouth={ "old_mouth_01" 18 "old_mouth_01" 18 }
 		gene_old_nose={ "old_nose_01" 127 "old_nose_01" 127 }
 		gene_complexion={ "complexion_01" 0 "complexion_01" 0 }
 		gene_stubble={ "stubble_low" 128 "stubble_low" 0 }
 		gene_crowfeet={ "crowfeet_01" 0 "crowfeet_01" 0 }
 		gene_face_dacals={ "face_dacal_03" 255 "face_dacal_03" 255 }
 		gene_frown={ "frown_01" 10 "frown_01" 10 }
 		gene_surprise={ "surprise_01" 10 "surprise_01" 10 }
 		gene_eyebrows_shape={ "far_spacing_high_thickness" 245 "far_spacing_high_thickness" 245 }
 		gene_eyebrows_fullness={ "layer_2_lower_thickness" 117 "layer_2_lower_thickness" 117 }
 		hairstyles={ "elven_hairstyles" 253 "elven_hairstyles" 14 }
 		beards={ "european_beards" 173 "no_beard" 204 }
 		mustaches={ "european_mustaches" 1 "no_mustache" 251 }
 		props={ "no_prop" 0 "no_prop" 0 }
 		eye_accessory={ "normal_eyes" 0 "normal_eyes" 0 }
 		eye_lashes_accessory={ "normal_eyelashes" 0 "normal_eyelashes" 0 }
 		teeth_accessory={ "normal_teeth" 0 "normal_teeth" 0 }
 		POD_NOSschnoz={ "schnozies" 0 "schnozies" 0 }
 		race_gene_mer_ears_01={ "mer_ears_02" 75 "mer_ears_01" 125 }
 		race_gene_mer_ears_02={ "mer_ears_02" 25 "mer_ears_02" 25 }
 }

}

    enabled=yes
}