﻿MILITARY_DEPLOYMENTS = {
#	c:MEX = {
#		random_scope_general = {
#			limit = {
#				has_variable = is_santa_anna
#			}
#
#			commander_military_formation = {
#				fully_mobilize_army = yes
#				teleport_to_front = p:xA3A810.front
#			}
#		}
#	}
#
#	c:TEX = {
#		every_military_formation = {
#			fully_mobilize_army = yes
#			teleport_to_front = p:xC369DB.front
#		}
#	}
#
#	c:BRZ = {
#		random_scope_general = {
#			limit = {
#				has_template = BRZ_pierre_labatut
#			}
#
#			commander_military_formation = {
#				fully_mobilize_army = yes
#				teleport_to_front = p:x0787AA.front
#			}
#		}
#
#		random_scope_general = {
#			limit = {
#				has_template = BRZ_pedro_de_alcantara_bellegarde
#			}
#
#			commander_military_formation = {
#				fully_mobilize_army = yes
#				teleport_to_front = p:x4538A5.front
#			}
#		}
#	}
#
#	c:PRA = {
#		every_military_formation = {
#			fully_mobilize_army = yes
#			teleport_to_front = p:xC3E90E.front
#		}
#	}
#
#	c:PNI = {
#		every_military_formation = {
#			fully_mobilize_army = yes
#			teleport_to_front = p:x529B8E.front
#		}
#	}
}
