﻿object={
	name="lakes"
	clamp_to_water_level=yes
	render_under_water=yes
	generated_content=no
	layer="static"
	pdxmesh="lake_mesh"
	count=10
	transform="4485.887207 0.430908 2907.021973 0.000000 0.448501 0.000000 0.893782 46.129169 46.129169 46.129169
4511.159668 0.190430 2920.259521 0.000000 0.000000 0.000000 1.000000 7.606383 7.606383 7.606383
4872.372070 0.723145 2667.999023 0.000000 0.285171 0.000000 0.958477 28.105055 28.105055 28.105055
4858.533691 0.676758 2550.434082 0.000000 0.000000 0.000000 1.000000 11.680779 11.680779 11.680779
4767.282715 0.508545 2524.039551 0.000000 0.000000 0.000000 1.000000 16.453403 16.453403 16.453403
4784.749023 0.428711 2581.467041 0.000000 0.000000 0.000000 1.000000 31.783533 31.783533 31.783533
4796.406738 0.003662 2967.667236 0.000000 0.000000 0.000000 1.000000 55.761177 55.761177 55.761177
5718.589844 0.677979 2600.863037 0.000000 0.000000 0.000000 1.000000 36.500717 36.500717 36.500717
4948.302734 0.106934 2469.525879 0.000000 -0.825352 0.000000 0.564619 24.395540 24.395540 24.395540
6302.481934 0.376221 2593.698242 0.000000 0.000000 0.000000 1.000000 15.822864 15.822864 15.822864
"}
